%YAML 1.1
%TAG !u! tag:unity3d.com,2011:
--- !u!114 &11400000
MonoBehaviour:
  m_ObjectHideFlags: 0
  m_CorrespondingSourceObject: {fileID: 0}
  m_PrefabInstance: {fileID: 0}
  m_PrefabAsset: {fileID: 0}
  m_GameObject: {fileID: 0}
  m_Enabled: 1
  m_EditorHideFlags: 0
  m_Script: {fileID: 11500000, guid: af944508b81f84e7683b0c9789f001a6, type: 3}
  m_Name: 33405EC4-AC7F-48E3-966E-284E24A62A80
  m_EditorClassIdentifier: 
  objectName: Start
  id: 1281810935
  guid: 33405EC4-AC7F-48E3-966E-284E24A62A80
